[0] Config.pm:304> INFO - This is Biber 2.14 (beta)
[0] Config.pm:307> INFO - Logfile is 'build/main.blg'
[66] biber:322> INFO - === qui out 15, 2020, 16:48:36
[78] Biber.pm:415> INFO - Reading 'build/main.bcf'
[135] Utils.pm:293> WARN - No data sources defined!
